%YAML 1.1
%TAG !u! tag:unity3d.com,2011:
--- !u!114 &11400000
MonoBehaviour:
  m_ObjectHideFlags: 0
  m_CorrespondingSourceObject: {fileID: 0}
  m_PrefabInstance: {fileID: 0}
  m_PrefabAsset: {fileID: 0}
  m_GameObject: {fileID: 0}
  m_Enabled: 1
  m_EditorHideFlags: 0
  m_Script: {fileID: 11500000, guid: a98268e8f02766a87a7a25cd70c55cbb, type: 3}
  m_Name: Fireball
  m_EditorClassIdentifier: 
  label: Fireball
  SpellClass: 0
  spell: {fileID: 11400000, guid: 6bab52e4ed3df385282a1aaa292d6b8e, type: 2}
  PickupClipArray:
  - {fileID: 8300000, guid: 3d704e4a7d9517fc78771a20659edd71, type: 3}
  - {fileID: 8300000, guid: 1eea38397a2e976d0aaad6fd24f72072, type: 3}
  - {fileID: 8300000, guid: 5e92879a7ba8d00bcbe078201c99b463, type: 3}
  - {fileID: 8300000, guid: ce9a41e5ba8c0928ba4c858b0f7c7b2d, type: 3}
  weight: 2
  value: 300
  amount: 1
  UIItem: {fileID: 2486574417489850026, guid: d81529ec49798f8e2b3c56c3dd0ac9a7, type: 3}
  InstanciableItem: {fileID: 5240253827082342359, guid: 83aba4b7b4815c1cf83ffef80b8d06a2, type: 3}
  Collectable: {fileID: 5240253827082342359, guid: 83aba4b7b4815c1cf83ffef80b8d06a2, type: 3}
