%YAML 1.1
%TAG !u! tag:unity3d.com,2011:
--- !u!78 &1
TagManager:
  serializedVersion: 2
  tags:
  - Lever
  - Kurzschwert
  - Enemy
  - UICam
  - Magic
  - Wall
  - Obstacle
  - Shield
  - EnemyDamage
  - PlayerWeapon
  layers:
  - Default
  - TransparentFX
  - Ignore Raycast
  - Overlay
  - Water
  - UI
  - CamSky
  - Pixelate
  - PostProcessing
  - Not in Reflection
  - Enemy
  - Player
  - MapIcons
  - Lights
  - 
  - 
  - 
  - 
  - 
  - 
  - 
  - 
  - 
  - 
  - 
  - 
  - 
  - 
  - 
  - 
  - 
  - 
  m_SortingLayers:
  - name: Default
    uniqueID: 0
    locked: 0
